[gd_scene load_steps=2 format=2]

[ext_resource path="res://meta_properties/property_field.gd" type="Script" id=1]

[node name="FloatProperty" type="HBoxContainer"]
anchor_right = 1.0
anchor_bottom = 1.0
rect_pivot_offset = Vector2( 258, 88 )
size_flags_horizontal = 3
script = ExtResource( 1 )

[node name="Name" type="Label" parent="."]
margin_top = 293.0
margin_right = 887.0
margin_bottom = 307.0
size_flags_horizontal = 3
text = "Property name"

[node name="Default" type="SpinBox" parent="."]
margin_left = 891.0
margin_right = 965.0
margin_bottom = 600.0
step = 0.1
allow_greater = true
allow_lesser = true

[node name="DeleteBtn" type="Button" parent="."]
margin_left = 969.0
margin_right = 1024.0
margin_bottom = 600.0
text = "Delete"

[connection signal="value_changed" from="Default" to="." method="_on_Default_value_changed"]
[connection signal="pressed" from="DeleteBtn" to="." method="_on_DeleteBtn_pressed"]
